L02 Data Transformation
…
Are located in Illinois and ranked in the top 50

have a median ACT score greater than 32 or mean SAT score greater than 1430

have a median ACT score greater than 32 or mean SAT score greater than 1430 AND are ranked in the top 50

Solution

Code

# a
college_rankings |> 
  filter(tuition_fees >= 50000)

# A tibble: 122 × 29
   unitid fed_sch_code institution             state_abbr city  rank_2023 public
    <dbl> <chr>        <chr>                   <chr>      <chr>     <dbl> <chr> 
 1 110370 1127         California College of … CA         San …       376 priva…
 2 110404 1131         California Institute o… CA         Pasa…         7 priva…
 3 111081 1132         California Institute o… CA         Vale…       197 priva…
 4 111948 1164         Chapman University      CA         Oran…       158 priva…
 5 112260 1170         Claremont McKenna Coll… CA         Clar…        34 priva…
 6 117946 1234         Loyola Marymount Unive… CA         Los …        90 priva…
 7 120254 1249         Occidental College      CA         Los …        95 priva…
 8 121150 1264         Pepperdine University   CA         Mali…       175 priva…
 9 121257 1172         Pitzer College          CA         Clar…        88 priva…
10 121345 1173         Pomona College          CA         Clar…        25 priva…
# ℹ 112 more rows
# ℹ 22 more variables: tuition_fees <dbl>, room_board <dbl>,
#   avg_net_price <dbl>, salary_after_10 <dbl>, overall_score <dbl>,
#   resources_score <dbl>, engagement_score <dbl>, outcomes_score <dbl>,
#   environment_score <dbl>, accept_rate <dbl>, act_median <dbl>,
#   sat_avg <dbl>, ug_enrolled <dbl>, grad_enrolled <dbl>,
#   retention_rate <dbl>, ug_student_loan_pct <dbl>, ug_men_pct <dbl>, …
…
Code

# c
college_rankings |> 
  filter(act_median > 32 | sat_avg > 1430)

# A tibble: 54 × 29
   unitid fed_sch_code institution             state_abbr city  rank_2023 public
    <dbl> <chr>        <chr>                   <chr>      <chr>     <dbl> <chr> 
 1 112260 1170         Claremont McKenna Coll… CA         Clar…        34 priva…
 2 121345 1173         Pomona College          CA         Clar…        25 priva…
 3 123165 1174         Scripps College         CA         Clar…        67 priva…
 4 123961 1328         University of Southern… CA         Los …        19 priva…
 5 130697 1424         Wesleyan University     CT         Midd…        43 priva…
 6 130794 1426         Yale University         CT         New …         4 priva…
 7 131496 1445         Georgetown University   DC         Wash…        32 priva…
 8 139658 1564         Emory University        GA         Atla…        20 priva…
 9 144050 1774         The University of Chic… IL         Chic…        14 priva…
10 147767 1739         Northwestern University IL         Evan…         9 priva…
# ℹ 44 more rows
# ℹ 22 more variables: tuition_fees <dbl>, room_board <dbl>,
#   avg_net_price <dbl>, salary_after_10 <dbl>, overall_score <dbl>,
#   resources_score <dbl>, engagement_score <dbl>, outcomes_score <dbl>,
#   environment_score <dbl>, accept_rate <dbl>, act_median <dbl>,
#   sat_avg <dbl>, ug_enrolled <dbl>, grad_enrolled <dbl>,
#   retention_rate <dbl>, ug_student_loan_pct <dbl>, ug_men_pct <dbl>, …

Code

# d
college_rankings |> 
  filter(act_median > 32 & rank_2023 <= 50 | sat_avg > 1430 & rank_2023 <= 50)

# A tibble: 34 × 29
   unitid fed_sch_code institution             state_abbr city  rank_2023 public
    <dbl> <chr>        <chr>                   <chr>      <chr>     <dbl> <chr> 
 1 112260 1170         Claremont McKenna Coll… CA         Clar…        34 priva…
 2 121345 1173         Pomona College          CA         Clar…        25 priva…
 3 123961 1328         University of Southern… CA         Los …        19 priva…
 4 130697 1424         Wesleyan University     CT         Midd…        43 priva…
 5 130794 1426         Yale University         CT         New …         4 priva…
 6 131496 1445         Georgetown University   DC         Wash…        32 priva…
 7 139658 1564         Emory University        GA         Atla…        20 priva…
 8 144050 1774         The University of Chic… IL         Chic…        14 priva…
 9 147767 1739         Northwestern University IL         Evan…         9 priva…
10 152080 1840         University of Notre Da… IN         Notr…        28 priva…
# ℹ 24 more rows
# ℹ 22 more variables: tuition_fees <dbl>, room_board <dbl>,
#   avg_net_price <dbl>, salary_after_10 <dbl>, overall_score <dbl>,
#   resources_score <dbl>, engagement_score <dbl>, outcomes_score <dbl>,
#   environment_score <dbl>, accept_rate <dbl>, act_median <dbl>,
#   sat_avg <dbl>, ug_enrolled <dbl>, grad_enrolled <dbl>,
#   retention_rate <dbl>, ug_student_loan_pct <dbl>, ug_men_pct <dbl>, …
…
Exercise 3

Was a college from every state ranked in this data frame?

Solution

Code

# distinct()
college_rankings |> 
  distinct(state_abbr)

# A tibble: 50 × 1
   state_abbr
   <chr>     
 1 AL        
 2 AZ        
 3 AR        
 4 CA        
 5 CO        
 6 CT        
 7 DE        
 8 DC        
 9 FL        
10 GA        
# ℹ 40 more rows
…
Exercise 5

Create a variable called avg_financial_aid which is calculated as the cost of attendance (tuition, fees, room and board) minus the average net price. ONLY include the institution and relevant variables in the printed output.

Solution

Code

college_rankings |> 
  mutate(
    avg_financial_aid = tuition_fees + room_board - avg_net_price) |> 
    select(institution, tuition_fees, room_board, avg_financial_aid)

# A tibble: 796 × 4
   institution                         tuition_fees room_board avg_financial_aid
   <chr>                                      <dbl>      <dbl>             <dbl>
 1 University of Alabama at Birmingham        20400      12307             16122
 2 University of Alabama in Huntsville        23518      10400             16668
 3 The University of Alabama                  30250      13636             22352
 4 Auburn University                          31124      13600             21466
 5 University of Montevallo                   26728       9810             19190
 6 Samford University                         32850      10980             13114
 7 University of South Alabama                16292       7800              7869
 8 Tuskegee University                        22614       9844             -2468
 9 Arizona State University (Tempe)           29428      13164             29778
10 University of Arizona                      34662      13050             32111
# ℹ 786 more rows
…
Code

# list of variables
variables <- c("institution", "state", "rank_2023", "overall_score")

Solution

Code

# selecting for any_of()
college_rankings |> 
  select(any_of(variables))

# A tibble: 796 × 3
   institution                         rank_2023 overall_score
   <chr>                                   <dbl>         <dbl>
 1 University of Alabama at Birmingham       306          52.9
 2 University of Alabama in Huntsville       401          48.2
 3 The University of Alabama                 401          48.2
 4 Auburn University                         284          54  
 5 University of Montevallo                  601          37.2
 6 Samford University                        184          59  
 7 University of South Alabama               601          37.2
 8 Tuskegee University                       401          48.2
 9 Arizona State University (Tempe)          214          57.1
10 University of Arizona                     131          63.7
# ℹ 786 more rows

Exercise 8

Use the contains() function to select all scores (overall, resources, engagement, outcomes, environment) and the institution from the data frame.

Solution

Code

college_rankings |> 
  select("institution", contains("score"))

# A tibble: 796 × 6
   institution     overall_score resources_score engagement_score outcomes_score
   <chr>                   <dbl>           <dbl>            <dbl>          <dbl>
 1 University of …          52.9            14.6             15.7           16.2
 2 University of …          48.2            NA               NA             16.9
 3 The University…          48.2            NA               16.4           17.6
 4 Auburn Univers…          54              10               17.2           22.7
 5 University of …          37.2            14               NA             NA  
 6 Samford Univer…          59              17.8             18.1           21.4
 7 University of …          37.2            NA               NA             NA  
 8 Tuskegee Unive…          48.2            16.5             NA             NA  
 9 Arizona State …          57.1            14.6             16.8           18.3
10 University of …          63.7            16.2             17             23.5
# ℹ 786 more rows
# ℹ 1 more variable: environment_score <dbl>

Exercise 9

Rename the variable rank_2023 to rank and move that column directly after institution in the dataframe.

Solution

Code

college_rankings |> 
  relocate(rank_2023, .after = institution) |>
    rename(rank = rank_2023) 

# A tibble: 796 × 29
   unitid fed_sch_code institution     rank state_abbr city  public tuition_fees
    <dbl> <chr>        <chr>          <dbl> <chr>      <chr> <chr>         <dbl>
 1 100663 1052         University of…   306 AL         Birm… public        20400
 2 100706 1055         University of…   401 AL         Hunt… public        23518
 3 100751 1051         The Universit…   401 AL         Tusc… public        30250
 4 100858 1009         Auburn Univer…   284 AL         Aubu… public        31124
 5 101709 1004         University of…   601 AL         Mont… public        26728
 6 102049 1036         Samford Unive…   184 AL         Birm… priva…        32850
 7 102094 1057         University of…   601 AL         Mobi… public        16292
 8 102377 1050         Tuskegee Univ…   401 AL         Tusk… priva…        22614
 9 104151 1081         Arizona State…   214 AZ         Tempe public        29428
10 104179 1083         University of…   131 AZ         Tucs… public        34662
# ℹ 786 more rows
# ℹ 21 more variables: room_board <dbl>, avg_net_price <dbl>,
#   salary_after_10 <dbl>, overall_score <dbl>, resources_score <dbl>,
#   engagement_score <dbl>, outcomes_score <dbl>, environment_score <dbl>,
#   accept_rate <dbl>, act_median <dbl>, sat_avg <dbl>, ug_enrolled <dbl>,
#   grad_enrolled <dbl>, retention_rate <dbl>, ug_student_loan_pct <dbl>,
#   ug_men_pct <dbl>, ug_women_pct <dbl>, student_faculty_ratio <dbl>, …
…
Exercise 12

Use count() to find the number of institutions ranked within each state. Print the output with the state with the most institutions on top.

Solution

Code

college_rankings |>
  group_by(state_abbr) |> 
  count() |> 
  arrange(desc(n))

# A tibble: 50 × 2
# Groups:   state_abbr [50]
   state_abbr     n
   <chr>      <int>
 1 NY            79
 2 PA            73
 3 CA            61
 4 MA            47
 5 OH            34
 6 TX            34
 7 IL            33
 8 MI            27
 9 MN            23
10 FL            22
# ℹ 40 more rows
…
